\relax 
\providecommand\hyper@newdestlabel[2]{}
\providecommand*{\memsetcounter}[2]{}
\catcode `"\active 
\providecommand\HyperFirstAtBeginDocument{\AtBeginDocument}
\HyperFirstAtBeginDocument{\ifx\hyper@anchor\@undefined
\global\let\oldcontentsline\contentsline
\gdef\contentsline#1#2#3#4{\oldcontentsline{#1}{#2}{#3}}
\global\let\oldnewlabel\newlabel
\gdef\newlabel#1#2{\newlabelxx{#1}#2}
\gdef\newlabelxx#1#2#3#4#5#6{\oldnewlabel{#1}{{#2}{#3}}}
\AtEndDocument{\ifx\hyper@anchor\@undefined
\let\contentsline\oldcontentsline
\let\newlabel\oldnewlabel
\fi}
\fi}
\global\let\hyper@last\relax 
\gdef\HyperFirstAtBeginDocument#1{#1}
\providecommand*\HyPL@Entry[1]{}
\AC@reset@newl@bel
\HyPL@Entry{0<</S/r>>}
\providecommand \oddpage@label [2]{}
\@writefile{loa}{\thispagestyle {empty}}
\babel@aux{brazil}{}
\@writefile{lof}{\addvspace {10pt}}
\@writefile{lot}{\addvspace {10pt}}
\@writefile{toc}{\contentsline {chapter}{Agradecimentos}{vi}{chapter*.1}}
\@writefile{loa}{\addvspace {10\p@ }}
\@writefile{lof}{\addvspace {10pt}}
\@writefile{lot}{\addvspace {10pt}}
\@writefile{toc}{\contentsline {chapter}{Resumo}{viii}{chapter*.2}}
\@writefile{loa}{\addvspace {10\p@ }}
\@writefile{lof}{\addvspace {10pt}}
\@writefile{lot}{\addvspace {10pt}}
\@writefile{toc}{\contentsline {chapter}{\textit  {Abstract}}{ix}{chapter*.3}}
\@writefile{loa}{\addvspace {10\p@ }}
\@writefile{toc}{\contentsline {chapter}{Sum\'ario}{x}{section*.4}}
\@writefile{toc}{\contentsline {chapter}{Lista de Algoritmos}{xiii}{section*.5}}
\@writefile{toc}{\contentsline {chapter}{Lista de Códigos}{xiv}{section*.6}}
\@writefile{toc}{\contentsline {chapter}{Lista de Figuras}{xvi}{section*.7}}
\@writefile{toc}{\contentsline {chapter}{Lista de Quadros}{xviii}{section*.8}}
\@writefile{toc}{\contentsline {chapter}{Lista de Tabelas}{xix}{section*.9}}
\@writefile{lof}{\addvspace {10pt}}
\@writefile{lot}{\addvspace {10pt}}
\@writefile{toc}{\contentsline {chapter}{Lista de Siglas}{xx}{chapter*.10}}
\@writefile{loa}{\addvspace {10\p@ }}
\newlabel{lista-siglas}{{\M@TitleReference {}{Lista de Siglas}}{xx}{Lista de Siglas}{chapter*.10}{}}
\newacro{AJAX}[\AC@hyperlink{AJAX}{AJAX}]{: \textit  {Asynchronous JAvascript and Xml}}
\newacro{ANTLR}[\AC@hyperlink{ANTLR}{ANTLR}]{: \textit  {ANother Tool for Language Recognition}}
\newacro{ASP}[\AC@hyperlink{ASP}{ASP}]{: \textit  {Active Server Pages}}
\newacro{AST}[\AC@hyperlink{AST}{AST}]{: \textit  {Abstract Syntax Tree}}
\newacro{BYOD}[\AC@hyperlink{BYOD}{BYOD}]{: \textit  {Bring Your Own Device}}
\newacro{CPU}[\AC@hyperlink{CPU}{CPU}]{: \textit  {Central Processing Unit}}
\newacro{CSS}[\AC@hyperlink{CSS}{CSS}]{: \textit  {Cascading Style Sheets}}
\newacro{DEX}[\AC@hyperlink{DEX}{DEX}]{: \textit  {Dalvik EXecutable}}
\newacro{DOM}[\AC@hyperlink{DOM}{DOM}]{: \textit  {Document Object Model}}
\newacro{DTD}[\AC@hyperlink{DTD}{DTD}]{: \textit  {Document Type Definition}}
\newacro{HTML}[\AC@hyperlink{HTML}{HTML}]{: \textit  {HyperText Markup Language}}
\newacro{HTTP}[\AC@hyperlink{HTTP}{HTTP}]{: \textit  {Hypertext Transfer Protocol}}
\newacro{HTTPS}[\AC@hyperlink{HTTPS}{HTTPS}]{: \textit  {Hypertext Transfer Protocol Secure}}
\newacro{IMEI}[\AC@hyperlink{IMEI}{IMEI}]{: \textit  {International Mobile Equipment Identity}}
\newacro{IP}[\AC@hyperlink{IP}{IP}]{: \textit  {Internet Protocol}}
\newacro{JNI}[\AC@hyperlink{JNI}{JNI}]{: \textit  {Java Native Interface}}
\newacro{JSON}[\AC@hyperlink{JSON}{JSON}]{: \textit  {JavaScript Object Notation}}
\newacro{MIME}[\AC@hyperlink{MIME}{MIME}]{: \textit  {Multipurpose Internet Mail Extensions}}
\newacro{PHP}[\AC@hyperlink{PHP}{PHP}]{: \textit  {PHP Hypertext Preprocessor}}
\newacro{PDF}[\AC@hyperlink{PDF}{PDF}]{: \textit  {Portable Document Format}}
\newacro{POSIX}[\AC@hyperlink{POSIX}{POSIX}]{: \textit  {Portable Operating System Interface for uniX}}
\newacro{RFC}[\AC@hyperlink{RFC}{RFC}]{: \textit  {Request for Comments}}
\newacro{SGML}[\AC@hyperlink{SGML}{SGML}]{: \textit  {Standard Generalized Markup Language}}
\newacro{SMS}[\AC@hyperlink{SMS}{SMS}]{: \textit  {Short Message Service}}
\newacro{WWW}[\AC@hyperlink{WWW}{WWW}]{: \textit  {World Wide Web}}
\setcounter{ppgcc@fc@frontpages}{21}
 
\citation{7476665,JavascriptUncovered,SOverflow,Concolic,RedMonk2017}
\citation{6681338}
\citation{WebFirefox,WebChrome}
\citation{WinJS,Electron}
\citation{Node.js}
\citation{Tizen}
\HyPL@Entry{21<</S/D>>}
\@writefile{lof}{\addvspace {10pt}}
\@writefile{lot}{\addvspace {10pt}}
\@writefile{toc}{\contentsline {chapter}{\chapternumberline {1}Introdução}{1}{chapter.1}}
\@writefile{loa}{\addvspace {10\p@ }}
\newlabel{introducao}{{\M@TitleReference {1}{Introdução}}{1}{Introdução}{chapter.1}{}}
\citation{Peneti2016}
\citation{AndroidLeaks}
\citation{Nedwons}
\citation{6547438}
\citation{Wang2014AGL}
\citation{Hsiao2014PasDroidRS}
\citation{JSAI,JSNOSE,Concolic,JSWhiz,7372042,Kashyap,6903571,TrustDroid,LeakMiner,Enck2010}
\@writefile{toc}{\contentsline {section}{\numberline {1.1}Motivação e Descrição do Problema}{2}{section.1.1}}
\newlabel{introducao:motivacao}{{\M@TitleReference {1.1}{Motivação e Descrição do Problema}}{2}{Motivação e Descrição do Problema}{section.1.1}{}}
\newlabel{codeval1}{{\M@TitleReference {1.1}{Motivação e Descrição do Problema}}{2}{Exemplo de código \textit {JavaScript} utilizando a função \textit {eval}}{lstlisting.1.1}{}}
\@writefile{lol}{\contentsline {lstlisting}{\numberline {1.1}Exemplo de código \textit  {JavaScript} utilizando a função \textit  {eval}}{2}{lstlisting.1.1}}
\@writefile{toc}{\contentsline {section}{\numberline {1.2}Objetivos}{3}{section.1.2}}
\newlabel{introducao:objetivos}{{\M@TitleReference {1.2}{Objetivos}}{3}{Objetivos}{section.1.2}{}}
\@writefile{toc}{\contentsline {subsection}{\numberline {1.2.1}Objetivo Geral}{3}{subsection.1.2.1}}
\newlabel{introducao:objetivogeral}{{\M@TitleReference {1.2.1}{Objetivo Geral}}{3}{Objetivo Geral}{subsection.1.2.1}{}}
\@writefile{toc}{\contentsline {subsection}{\numberline {1.2.2}Objetivos Específicos}{3}{subsection.1.2.2}}
\newlabel{introducao:objetivosespecificos}{{\M@TitleReference {1.2.2}{Objetivos Específicos}}{3}{Objetivos Específicos}{subsection.1.2.2}{}}
\@writefile{toc}{\contentsline {section}{\numberline {1.3}Contribuições}{4}{section.1.3}}
\newlabel{conclusao:contribuicoes}{{\M@TitleReference {1.3}{Contribuições}}{4}{Contribuições}{section.1.3}{}}
\@writefile{toc}{\contentsline {section}{\numberline {1.4}Estrutura do Documento}{4}{section.1.4}}
\newlabel{introducao:estruturadodocumento}{{\M@TitleReference {1.4}{Estrutura do Documento}}{4}{Estrutura do Documento}{section.1.4}{}}
\citation{DefJavascript}
\citation{ECMAscript}
\citation{JavGuideDef,HTMLArch}
\citation{W3CJavascript}
\citation{Node.js}
\citation{NodeJS}
\@writefile{lof}{\addvspace {10pt}}
\@writefile{lot}{\addvspace {10pt}}
\@writefile{toc}{\contentsline {chapter}{\chapternumberline {2}\textit  {JavaScript} e Desenvolvimento \textit  {Web}}{6}{chapter.2}}
\@writefile{loa}{\addvspace {10\p@ }}
\newlabel{conceitosbasicos}{{\M@TitleReference {2}{\textit  {JavaScript} e Desenvolvimento \textit  {Web}}}{6}{\textit {JavaScript} e Desenvolvimento \textit {Web}}{chapter.2}{}}
\@writefile{toc}{\contentsline {section}{\numberline {2.1}Linguagem de Programação \textit  {JavaScript}}{6}{section.2.1}}
\newlabel{conceitos:JavaScript}{{\M@TitleReference {2.1}{Linguagem de Programação \textit  {JavaScript}}}{6}{Linguagem de Programação \textit {JavaScript}}{section.2.1}{}}
\newlabel{indexhtml}{{\M@TitleReference {2.1}{Linguagem de Programação \textit  {JavaScript}}}{7}{Exemplo de \textit {JavaScript inline}}{lstlisting.2.1}{}}
\@writefile{lol}{\contentsline {lstlisting}{\numberline {2.1}Exemplo de \textit  {JavaScript inline}.}{7}{lstlisting.2.1}}
\newlabel{index_libjs}{{\M@TitleReference {2.2}{Linguagem de Programação \textit  {JavaScript}}}{8}{Exemplo de \textit {JavaScript} externo}{lstlisting.2.2}{}}
\@writefile{lol}{\contentsline {lstlisting}{\numberline {2.2}Exemplo de \textit  {JavaScript} externo.}{8}{lstlisting.2.2}}
\newlabel{codigo_implicito}{{\M@TitleReference {2.3}{Linguagem de Programação \textit  {JavaScript}}}{8}{Trecho de código explícito contendo códigos implícitos}{lstlisting.2.3}{}}
\@writefile{lol}{\contentsline {lstlisting}{\numberline {2.3}Trecho de código explícito contendo códigos implícitos.}{8}{lstlisting.2.3}}
\ppgcc@fc@ilaux{}
 
\@writefile{lof}{\contentsline {figure}{\numberline {2.1}{\ignorespaces Novos códigos criados dinamicamente.}}{9}{figure.2.1}}
\newlabel{fig:codigo_implicito_criado}{{\M@TitleReference {2.1}{Novos códigos criados dinamicamente.}}{9}{Novos códigos criados dinamicamente}{figure.2.1}{}}
\citation{SEC:SEC1064,jodavi2015}
\citation{Peneti2016}
\newlabel{codigo_implicito_ofuscado}{{\M@TitleReference {2.4}{Linguagem de Programação \textit  {JavaScript}}}{10}{Trecho de código explícito contendo códigos implícitos ofuscados}{lstlisting.2.4}{}}
\@writefile{lol}{\contentsline {lstlisting}{\numberline {2.4}Trecho de código explícito contendo códigos implícitos ofuscados.}{10}{lstlisting.2.4}}
\citation{CasoSony}
\citation{5487521}
\citation{casoUber}
\citation{BYOD}
\@writefile{toc}{\contentsline {section}{\numberline {2.2}Vazamento de Informação}{11}{section.2.2}}
\newlabel{conceitos:vazamentoinformacao}{{\M@TitleReference {2.2}{Vazamento de Informação}}{11}{Vazamento de Informação}{section.2.2}{}}
\citation{7888731,JSNOSE,Saoji}
\citation{6234407}
\citation{Yong2005}
\citation{7977127}
\@writefile{toc}{\contentsline {section}{\numberline {2.3}Análise de Marcação (\textit  {Taint Analysis})}{12}{section.2.3}}
\newlabel{conceitos:analisemarcacao}{{\M@TitleReference {2.3}{Análise de Marcação (\textit  {Taint Analysis})}}{12}{Análise de Marcação (\textit {Taint Analysis})}{section.2.3}{}}
\@writefile{toc}{\contentsline {subsection}{\numberline {2.3.1}Análise de Marcação Dinâmica}{12}{subsection.2.3.1}}
\newlabel{conceitos:analisedinamica}{{\M@TitleReference {2.3.1}{Análise de Marcação Dinâmica}}{12}{Análise de Marcação Dinâmica}{subsection.2.3.1}{}}
\citation{Asund}
\citation{Mohammed_A}
\citation{5705174,kukushi2014,lazar2014}
\citation{Neamtiu2005}
\citation{blanc2012}
\citation{Curtsinger2011}
\@writefile{toc}{\contentsline {subsection}{\numberline {2.3.2}Análise de Marcação Estática}{13}{subsection.2.3.2}}
\newlabel{conceitos:analiseestatica}{{\M@TitleReference {2.3.2}{Análise de Marcação Estática}}{13}{Análise de Marcação Estática}{subsection.2.3.2}{}}
\@writefile{lof}{\contentsline {figure}{\numberline {2.2}{\ignorespaces Exemplo de um código \textit  {JavaScript} com sua respectiva AST.}}{13}{figure.2.2}}
\newlabel{fig:ast}{{\M@TitleReference {2.2}{Exemplo de um código \textit  {JavaScript} com sua respectiva AST.}}{13}{Exemplo de um código \textit {JavaScript} com sua respectiva AST}{figure.2.2}{}}
\citation{Esprima}
\@writefile{lof}{\contentsline {figure}{\numberline {2.3}{\ignorespaces Exemplo de AST gerada pelo módulo Esprima a partir de um código \textit  {JavaScript}.}}{14}{figure.2.3}}
\newlabel{fig_ast_esprima}{{\M@TitleReference {2.3}{Exemplo de AST gerada pelo módulo Esprima a partir de um código \textit  {JavaScript}.}}{14}{Exemplo de AST gerada pelo módulo Esprima a partir de um código \textit {JavaScript}}{figure.2.3}{}}
\citation{TrustDroid}
\citation{Saoji}
\citation{Enck2010}
\@writefile{toc}{\contentsline {subsection}{\numberline {2.3.3}Termos da Análise de Marcação}{15}{subsection.2.3.3}}
\citation{DBLP:journals/corr/LiBKTARBOM14}
\citation{DBLP:journals/corr/LiBKTARBOM14,Enck2010}
\@writefile{toc}{\contentsline {section}{\numberline {2.4}Considerações Finais}{16}{section.2.4}}
\newlabel{conceitos:consideracoes}{{\M@TitleReference {2.4}{Considerações Finais}}{16}{Considerações Finais}{section.2.4}{}}
\citation{Nedwons}
\@writefile{lof}{\addvspace {10pt}}
\@writefile{lot}{\addvspace {10pt}}
\@writefile{toc}{\contentsline {chapter}{\chapternumberline {3}Trabalhos Relacionados}{18}{chapter.3}}
\@writefile{loa}{\addvspace {10\p@ }}
\newlabel{trabalhos-relacionados}{{\M@TitleReference {3}{Trabalhos Relacionados}}{18}{Trabalhos Relacionados}{chapter.3}{}}
\@writefile{toc}{\contentsline {section}{\numberline {3.1}Análise de Pacotes}{18}{section.3.1}}
\newlabel{trabrelacionados:analise-pacotes}{{\M@TitleReference {3.1}{Análise de Pacotes}}{18}{Análise de Pacotes}{section.3.1}{}}
\citation{6547438}
\citation{Wang2014AGL}
\citation{Hsiao2014PasDroidRS}
\citation{Enck2010}
\@writefile{toc}{\contentsline {section}{\numberline {3.2}Lista de Permissão}{20}{section.3.2}}
\newlabel{trabrelacionados:lista-permissao}{{\M@TitleReference {3.2}{Lista de Permissão}}{20}{Lista de Permissão}{section.3.2}{}}
\citation{JSAI}
\citation{Spidermonkey}
\citation{Scala}
\citation{JSNOSE}
\citation{Rhino}
\@writefile{toc}{\contentsline {section}{\numberline {3.3}Análise do Fluxo de Informação}{21}{section.3.3}}
\newlabel{trabrelacionados: analise-fluxo-info}{{\M@TitleReference {3.3}{Análise do Fluxo de Informação}}{21}{Análise do Fluxo de Informação}{section.3.3}{}}
\citation{Concolic}
\citation{SAFEweb,SAFE,Lee_safe}
\citation{JSWhiz}
\citation{7372042}
\citation{WALA}
\citation{Kashyap}
\citation{Rhino}
\citation{JSAI}
\citation{SunSpider}
\citation{Octane}
\citation{LINQ}
\citation{Emscripten}
\citation{6903571}
\citation{TrustDroid}
\@writefile{lof}{\contentsline {figure}{\numberline {3.1}{\ignorespaces Exemplo de um trecho do código-fonte de um programa.}}{24}{figure.3.1}}
\newlabel{fig_trustdroid1}{{\M@TitleReference {3.1}{Exemplo de um trecho do código-fonte de um programa.}}{24}{Exemplo de um trecho do código-fonte de um programa}{figure.3.1}{}}
\citation{LeakMiner}
\@writefile{lof}{\contentsline {figure}{\numberline {3.2}{\ignorespaces Estrutura de árvore gerada pelo código-fonte da classe \textit  {Trustdroid\_test}.}}{25}{figure.3.2}}
\newlabel{fig_trustdroid2}{{\M@TitleReference {3.2}{Estrutura de árvore gerada pelo código-fonte da classe \textit  {Trustdroid\_test}.}}{25}{Estrutura de árvore gerada pelo código-fonte da classe \textit {Trustdroid\_test}}{figure.3.2}{}}
\@writefile{lof}{\contentsline {figure}{\numberline {3.3}{\ignorespaces Arquitetura geral do \textit  {LeakMiner}.}}{25}{figure.3.3}}
\newlabel{fig_leakminer1}{{\M@TitleReference {3.3}{Arquitetura geral do \textit  {LeakMiner}.}}{25}{Arquitetura geral do \textit {LeakMiner}}{figure.3.3}{}}
\citation{LeakMiner}
\citation{Enck2010}
\citation{jsprime}
\citation{scanjs}
\@writefile{lof}{\contentsline {figure}{\numberline {3.4}{\ignorespaces Exemplo de execução do analisador \textit  {JSPrime}.}}{28}{figure.3.4}}
\newlabel{fig_jprime}{{\M@TitleReference {3.4}{Exemplo de execução do analisador \textit  {JSPrime}.}}{28}{Exemplo de execução do analisador \textit {JSPrime}}{figure.3.4}{}}
\citation{jspwn}
\@writefile{lof}{\contentsline {figure}{\numberline {3.5}{\ignorespaces Área de cadastro de regras de assinaturas do analisador \textit  {ScanJS}.}}{29}{figure.3.5}}
\newlabel{fig_scanjs_regras}{{\M@TitleReference {3.5}{Área de cadastro de regras de assinaturas do analisador \textit  {ScanJS}.}}{29}{Área de cadastro de regras de assinaturas do analisador \textit {ScanJS}}{figure.3.5}{}}
\@writefile{lof}{\contentsline {figure}{\numberline {3.6}{\ignorespaces Exemplo de execução do analisador \textit  {JSpwn}.}}{30}{figure.3.6}}
\newlabel{fig_JSpwn}{{\M@TitleReference {3.6}{Exemplo de execução do analisador \textit  {JSpwn}.}}{30}{Exemplo de execução do analisador \textit {JSpwn}}{figure.3.6}{}}
\citation{JSAI}
\citation{JSNOSE}
\citation{Concolic}
\citation{JSWhiz}
\citation{7372042}
\citation{Kashyap}
\citation{6903571}
\citation{Enck2010}
\citation{TrustDroid}
\citation{LeakMiner}
\citation{Wang2014AGL}
\citation{Nedwons}
\citation{Hsiao2014PasDroidRS}
\citation{6547438}
\citation{Concolic}
\citation{7372042}
\citation{Kashyap}
\@writefile{toc}{\contentsline {section}{\numberline {3.4}Discussão}{31}{section.3.4}}
\newlabel{trabrelacionados: discussao}{{\M@TitleReference {3.4}{Discussão}}{31}{Discussão}{section.3.4}{}}
\@writefile{lot}{\contentsline {table}{\numberline {3.1}{\ignorespaces Características dos trabalhos relacionados.}}{31}{table.3.1}}
\newlabel{comparacao-trabalhos}{{\M@TitleReference {3.1}{Características dos trabalhos relacionados.}}{31}{Características dos trabalhos relacionados}{table.3.1}{}}
\@writefile{lot}{\contentsline {table}{\numberline {3.2}{\ignorespaces Limitações e características dos trabalhos relacionados com análise em \textit  {JavaScript}.}}{32}{table.3.2}}
\newlabel{comparacao-trabalhos2}{{\M@TitleReference {3.2}{Limitações e características dos trabalhos relacionados com análise em \textit  {JavaScript}.}}{32}{Limitações e características dos trabalhos relacionados com análise em \textit {JavaScript}}{table.3.2}{}}
\@writefile{lof}{\addvspace {10pt}}
\@writefile{lot}{\addvspace {10pt}}
\@writefile{toc}{\contentsline {chapter}{\chapternumberline {4}\textit  {TaintJSec}}{33}{chapter.4}}
\@writefile{loa}{\addvspace {10\p@ }}
\newlabel{proposta}{{\M@TitleReference {4}{\textit  {TaintJSec}}}{33}{\textit {TaintJSec}}{chapter.4}{}}
\@writefile{lof}{\contentsline {figure}{\numberline {4.1}{\ignorespaces Fases da abordagem.}}{34}{figure.4.1}}
\newlabel{fig:fig_macro_fases_da_abordagem}{{\M@TitleReference {4.1}{Fases da abordagem.}}{34}{Fases da abordagem}{figure.4.1}{}}
\@writefile{toc}{\contentsline {section}{\numberline {4.1}Identificação e Extração de Código}{34}{section.4.1}}
\newlabel{proposta:extracao_organizacao}{{\M@TitleReference {4.1}{Identificação e Extração de Código}}{34}{Identificação e Extração de Código}{section.4.1}{}}
\@writefile{lof}{\contentsline {figure}{\numberline {4.2}{\ignorespaces Etapas da fase de identificação e extração de códigos \textit  {JavaScript}.}}{35}{figure.4.2}}
\newlabel{fig:HTML_extrair_script}{{\M@TitleReference {4.2}{Etapas da fase de identificação e extração de códigos \textit  {JavaScript}.}}{35}{Etapas da fase de identificação e extração de códigos \textit {JavaScript}}{figure.4.2}{}}
\newlabel{htmlsemscript}{{\M@TitleReference {4.1}{Identificação e Extração de Código}}{35}{Exemplo de HTML sem código \textit {JavaScript}}{lstlisting.4.1}{}}
\@writefile{lol}{\contentsline {lstlisting}{\numberline {4.1}Exemplo de HTML sem código \textit  {JavaScript}.}{35}{lstlisting.4.1}}
\@writefile{toc}{\contentsline {section}{\numberline {4.2}Criação da Árvore Sintática Abstrata}{36}{section.4.2}}
\newlabel{proposta:arvore_sintatica_abstrata}{{\M@TitleReference {4.2}{Criação da Árvore Sintática Abstrata}}{36}{Criação da Árvore Sintática Abstrata}{section.4.2}{}}
\@writefile{toc}{\contentsline {section}{\numberline {4.3}Análise do Fluxo da Informação}{37}{section.4.3}}
\newlabel{proposta:analise_fluxo_informacao}{{\M@TitleReference {4.3}{Análise do Fluxo da Informação}}{37}{Análise do Fluxo da Informação}{section.4.3}{}}
\@writefile{toc}{\contentsline {subsection}{\numberline {4.3.1}Estrutura dos Registradores}{38}{subsection.4.3.1}}
\newlabel{proposta:estruturadosregistradores}{{\M@TitleReference {4.3.1}{Estrutura dos Registradores}}{38}{Estrutura dos Registradores}{subsection.4.3.1}{}}
\@writefile{loa}{\contentsline {algocf}{\numberline {4.1}{\ignorespaces Armazenamento e atualização de objetos em registradores.}}{38}{algocf.4.1}}
\newlabel{algoritmo_escopos}{{\M@TitleReference {4.1}{Estrutura dos Registradores}}{38}{Estrutura dos Registradores}{algocf.4.1}{}}
\@writefile{lof}{\contentsline {figure}{\numberline {4.3}{\ignorespaces Representação simplificada da estrutura de armazenamento de um registrador.}}{39}{figure.4.3}}
\newlabel{fig:representacaoresumidareg}{{\M@TitleReference {4.3}{Representação simplificada da estrutura de armazenamento de um registrador.}}{39}{Representação simplificada da estrutura de armazenamento de um registrador}{figure.4.3}{}}
\@writefile{lof}{\contentsline {figure}{\numberline {4.4}{\ignorespaces Representação simplificada da estrutura de armazenamento de escopos.}}{39}{figure.4.4}}
\newlabel{fig:representacaoresumidaesc}{{\M@TitleReference {4.4}{Representação simplificada da estrutura de armazenamento de escopos.}}{39}{Representação simplificada da estrutura de armazenamento de escopos}{figure.4.4}{}}
\@writefile{toc}{\contentsline {subsection}{\numberline {4.3.2}Marcação de Registradores}{39}{subsection.4.3.2}}
\newlabel{proposta:marcacaoderegistradores}{{\M@TitleReference {4.3.2}{Marcação de Registradores}}{39}{Marcação de Registradores}{subsection.4.3.2}{}}
\@writefile{lof}{\contentsline {figure}{\numberline {4.5}{\ignorespaces Exemplo da estrutura gerada por um caso específico.}}{40}{figure.4.5}}
\newlabel{fig:representacaoresumidaexemplo}{{\M@TitleReference {4.5}{Exemplo da estrutura gerada por um caso específico.}}{40}{Exemplo da estrutura gerada por um caso específico}{figure.4.5}{}}
\@writefile{lof}{\contentsline {figure}{\numberline {4.6}{\ignorespaces Representação simplificada da estrutura de armazenamento de um registrador contendo o \textit  {taint tag}.}}{40}{figure.4.6}}
\newlabel{fig:representacaoresumidaregtaint}{{\M@TitleReference {4.6}{Representação simplificada da estrutura de armazenamento de um registrador contendo o \textit  {taint tag}.}}{40}{Representação simplificada da estrutura de armazenamento de um registrador contendo o \textit {taint tag}}{figure.4.6}{}}
\@writefile{lof}{\contentsline {figure}{\numberline {4.7}{\ignorespaces Exemplo do \textit  {taint tag} inserido na estrutura de um registrador.}}{41}{figure.4.7}}
\newlabel{fig:representacaoresumidaexemplotaint}{{\M@TitleReference {4.7}{Exemplo do \textit  {taint tag} inserido na estrutura de um registrador.}}{41}{Exemplo do \textit {taint tag} inserido na estrutura de um registrador}{figure.4.7}{}}
\@writefile{toc}{\contentsline {subsection}{\numberline {4.3.3}\textit  {Taint Sources}}{41}{subsection.4.3.3}}
\newlabel{proposta:taintsources}{{\M@TitleReference {4.3.3}{\textit  {Taint Sources}}}{41}{\textit {Taint Sources}}{subsection.4.3.3}{}}
\@writefile{loa}{\contentsline {algocf}{\numberline {4.2}{\ignorespaces Verificação de \textit  {taint sources}.}}{41}{algocf.4.2}}
\newlabel{algoritmoVerificacaoTS}{{\M@TitleReference {4.2}{\textit  {Taint Sources}}}{41}{\textit {Taint Sources}}{algocf.4.2}{}}
\@writefile{toc}{\contentsline {subsection}{\numberline {4.3.4}\textit  {Taint Sinks}}{42}{subsection.4.3.4}}
\newlabel{proposta:taintsinks}{{\M@TitleReference {4.3.4}{\textit  {Taint Sinks}}}{42}{\textit {Taint Sinks}}{subsection.4.3.4}{}}
\@writefile{loa}{\contentsline {algocf}{\numberline {4.3}{\ignorespaces Verificação de \textit  {taint sinks}.}}{42}{algocf.4.3}}
\newlabel{algoritmoVerificacaoTSinks}{{\M@TitleReference {4.3}{\textit  {Taint Sinks}}}{42}{\textit {Taint Sinks}}{algocf.4.3}{}}
\@writefile{loa}{\contentsline {algocf}{\numberline {4.4}{\ignorespaces Detecção de vazamento de informação.}}{43}{algocf.4.4}}
\newlabel{algoritmoVerificacaoVazamento}{{\M@TitleReference {4.4}{\textit  {Taint Sinks}}}{43}{\textit {Taint Sinks}}{algocf.4.4}{}}
\newlabel{exemplovazamento1}{{\M@TitleReference {4.2}{\textit  {Taint Sinks}}}{43}{Código contendo objetos considerados \textit {taint sinks} pelo \textit {TaintJSec}}{lstlisting.4.2}{}}
\@writefile{lol}{\contentsline {lstlisting}{\numberline {4.2}Código contendo objetos considerados \textit  {taint sinks} pelo \textit  {TaintJSec}.}{43}{lstlisting.4.2}}
\@writefile{toc}{\contentsline {subsection}{\numberline {4.3.5}Propagação do \textit  {Taint Tag}}{43}{subsection.4.3.5}}
\newlabel{proposta:apropagacaotainttag}{{\M@TitleReference {4.3.5}{Propagação do \textit  {Taint Tag}}}{43}{Propagação do \textit {Taint Tag}}{subsection.4.3.5}{}}
\@writefile{loq}{\contentsline {quadro}{\numberline {4.1}{\ignorespaces Regras de propagação do \textit  {taint tag} e seus respectivos conjuntos de operações.}}{44}{quadro.4.1}}
\newlabel{quadro:regras_propagacao}{{\M@TitleReference {4.1}{Regras de propagação do \textit  {taint tag} e seus respectivos conjuntos de operações.}}{44}{Regras de propagação do \textit {taint tag} e seus respectivos conjuntos de operações}{quadro.4.1}{}}
\@writefile{toc}{\contentsline {subsubsection}{\numberline {4.3.5.1}Propagação por Atribuição}{44}{subsubsection.4.3.5.1}}
\newlabel{proposta:propagacao_atribuicao}{{\M@TitleReference {4.3.5.1}{Propagação por Atribuição}}{44}{Propagação por Atribuição}{subsubsection.4.3.5.1}{}}
\@writefile{toc}{\contentsline {subsubsection}{\numberline {4.3.5.2}Propagação por Expressão}{44}{subsubsection.4.3.5.2}}
\newlabel{proposta:propagacao_expressao}{{\M@TitleReference {4.3.5.2}{Propagação por Expressão}}{44}{Propagação por Expressão}{subsubsection.4.3.5.2}{}}
\@writefile{lof}{\contentsline {figure}{\numberline {4.8}{\ignorespaces Exemplo de propagação por atribuição em um trecho de código \textit  {JavaScript}.}}{45}{figure.4.8}}
\newlabel{fig:fig_exemplo_prop_atribuicao}{{\M@TitleReference {4.8}{Exemplo de propagação por atribuição em um trecho de código \textit  {JavaScript}.}}{45}{Exemplo de propagação por atribuição em um trecho de código \textit {JavaScript}}{figure.4.8}{}}
\@writefile{lof}{\contentsline {figure}{\numberline {4.9}{\ignorespaces Exemplo de propagação por expressão em um trecho de código \textit  {JavaScript}.}}{45}{figure.4.9}}
\newlabel{fig:exemplo_propagacao_expressao}{{\M@TitleReference {4.9}{Exemplo de propagação por expressão em um trecho de código \textit  {JavaScript}.}}{45}{Exemplo de propagação por expressão em um trecho de código \textit {JavaScript}}{figure.4.9}{}}
\@writefile{lof}{\contentsline {figure}{\numberline {4.10}{\ignorespaces Exemplo dos passos da propagação do \textit  {taint tag} na AST.}}{46}{figure.4.10}}
\newlabel{fig:exemplo_propagacao_expressao_explicacao}{{\M@TitleReference {4.10}{Exemplo dos passos da propagação do \textit  {taint tag} na AST.}}{46}{Exemplo dos passos da propagação do \textit {taint tag} na AST}{figure.4.10}{}}
\@writefile{toc}{\contentsline {subsubsection}{\numberline {4.3.5.3}Propagação por Passagem de Parâmetro}{47}{subsubsection.4.3.5.3}}
\newlabel{proposta:propagacao_passparametro}{{\M@TitleReference {4.3.5.3}{Propagação por Passagem de Parâmetro}}{47}{Propagação por Passagem de Parâmetro}{subsubsection.4.3.5.3}{}}
\@writefile{lof}{\contentsline {figure}{\numberline {4.11}{\ignorespaces Exemplo de propagação por passagem de parâmetro em um trecho de código \textit  {JavaScript}.}}{47}{figure.4.11}}
\newlabel{fig:exemplo_propagacao_passparametro}{{\M@TitleReference {4.11}{Exemplo de propagação por passagem de parâmetro em um trecho de código \textit  {JavaScript}.}}{47}{Exemplo de propagação por passagem de parâmetro em um trecho de código \textit {JavaScript}}{figure.4.11}{}}
\@writefile{toc}{\contentsline {subsubsection}{\numberline {4.3.5.4}Propagação por Função Nativa}{47}{subsubsection.4.3.5.4}}
\newlabel{proposta:propagacao_funcaonativa}{{\M@TitleReference {4.3.5.4}{Propagação por Função Nativa}}{47}{Propagação por Função Nativa}{subsubsection.4.3.5.4}{}}
\@writefile{lof}{\contentsline {figure}{\numberline {4.12}{\ignorespaces Exemplo de propagação em função nativa.}}{48}{figure.4.12}}
\newlabel{fig:fig_prop_funcaonativa}{{\M@TitleReference {4.12}{Exemplo de propagação em função nativa.}}{48}{Exemplo de propagação em função nativa}{figure.4.12}{}}
\@writefile{toc}{\contentsline {subsubsection}{\numberline {4.3.5.5}Propagação na Função Eval (Caso especial de propagação por função nativa)}{48}{subsubsection.4.3.5.5}}
\newlabel{proposta:propagacao_funcaonativa_eval}{{\M@TitleReference {4.3.5.5}{Propagação na Função Eval (Caso especial de propagação por função nativa)}}{48}{Propagação na Função Eval (Caso especial de propagação por função nativa)}{subsubsection.4.3.5.5}{}}
\@writefile{loa}{\contentsline {algocf}{\numberline {4.5}{\ignorespaces Criação do conjunto de \textit  {taint position} resultante de uma operação de concatenação entre dois objetos.}}{50}{algocf.4.5}}
\newlabel{algoritmoConjuntoTaintPosition}{{\M@TitleReference {4.5}{Propagação na Função Eval (Caso especial de propagação por função nativa)}}{50}{Propagação na Função Eval (Caso especial de propagação por função nativa)}{algocf.4.5}{}}
\@writefile{lof}{\contentsline {figure}{\numberline {4.13}{\ignorespaces Exemplo de criação de \textit  {tainted position}.}}{51}{figure.4.13}}
\newlabel{fig:fig_taint_position_exemplo}{{\M@TitleReference {4.13}{Exemplo de criação de \textit  {tainted position}.}}{51}{Exemplo de criação de \textit {tainted position}}{figure.4.13}{}}
\@writefile{lof}{\contentsline {figure}{\numberline {4.14}{\ignorespaces Exemplo do processo de reescrita do argumento da função \textit  {eval} e identificação dos \textit  {tainted positions}.}}{51}{figure.4.14}}
\newlabel{fig:fig_args_eval}{{\M@TitleReference {4.14}{Exemplo do processo de reescrita do argumento da função \textit  {eval} e identificação dos \textit  {tainted positions}.}}{51}{Exemplo do processo de reescrita do argumento da função \textit {eval} e identificação dos \textit {tainted positions}}{figure.4.14}{}}
\@writefile{lof}{\contentsline {figure}{\numberline {4.15}{\ignorespaces Exemplo de AST com os atributos de intervalo de código-fonte e o \textit  {taint tag} atribuído devido a existência de um \textit  {tainted position} no intervalo.}}{52}{figure.4.15}}
\newlabel{fig:fig_ast_args_eval}{{\M@TitleReference {4.15}{Exemplo de AST com os atributos de intervalo de código-fonte e o \textit  {taint tag} atribuído devido a existência de um \textit  {tainted position} no intervalo.}}{52}{Exemplo de AST com os atributos de intervalo de código-fonte e o \textit {taint tag} atribuído devido a existência de um \textit {tainted position} no intervalo}{figure.4.15}{}}
\@writefile{toc}{\contentsline {section}{\numberline {4.4}Implementação}{53}{section.4.4}}
\newlabel{proposta:implementacao}{{\M@TitleReference {4.4}{Implementação}}{53}{Implementação}{section.4.4}{}}
\@writefile{lof}{\contentsline {figure}{\numberline {4.16}{\ignorespaces Testes de execução da expressão unária \textbf  {+[]} no \textit  {shell} do \textit  {Python}, PHP e \textit  {Node.js}.}}{53}{figure.4.16}}
\newlabel{fig_shell_linguagens}{{\M@TitleReference {4.16}{Testes de execução da expressão unária \textbf  {+[]} no \textit  {shell} do \textit  {Python}, PHP e \textit  {Node.js}.}}{53}{Testes de execução da expressão unária \textbf {+[]} no \textit {shell} do \textit {Python}, PHP e \textit {Node.js}}{figure.4.16}{}}
\citation{JSDOM}
\citation{jQuery}
\@writefile{toc}{\contentsline {subsection}{\numberline {4.4.1}Primeira Fase: Identificação e Extração de Código}{54}{subsection.4.4.1}}
\newlabel{proposta:implementacao_primeira_fase}{{\M@TitleReference {4.4.1}{Primeira Fase: Identificação e Extração de Código}}{54}{Primeira Fase: Identificação e Extração de Código}{subsection.4.4.1}{}}
\newlabel{jsdomjquery}{{\M@TitleReference {4.3}{Primeira Fase: Identificação e Extração de Código}}{54}{Exemplo de uso do módulo jsDom, utilizando a biblioteca \textit {jQuery} para manipular objetos do código HTML}{lstlisting.4.3}{}}
\@writefile{lol}{\contentsline {lstlisting}{\numberline {4.3}Exemplo de uso do módulo jsDom, utilizando a biblioteca \textit  {jQuery} para manipular objetos do código HTML.}{54}{lstlisting.4.3}}
\newlabel{jsdomextracao}{{\M@TitleReference {4.4}{Primeira Fase: Identificação e Extração de Código}}{54}{Função de extração de trechos scripts utilizando \textit {jQuery}}{lstlisting.4.4}{}}
\@writefile{lol}{\contentsline {lstlisting}{\numberline {4.4}Função de extração de trechos scripts utilizando \textit  {jQuery}.}{54}{lstlisting.4.4}}
\citation{Esprima}
\@writefile{toc}{\contentsline {subsection}{\numberline {4.4.2}Segunda Fase: Árvore Sintática Abstrata}{55}{subsection.4.4.2}}
\newlabel{proposta:implementacao_segunda_fase}{{\M@TitleReference {4.4.2}{Segunda Fase: Árvore Sintática Abstrata}}{55}{Segunda Fase: Árvore Sintática Abstrata}{subsection.4.4.2}{}}
\@writefile{lot}{\contentsline {table}{\numberline {4.1}{\ignorespaces \textit  {Flags} de configuração do módulo Esprima.}}{55}{table.4.1}}
\newlabel{esprimaflags}{{\M@TitleReference {4.1}{\textit  {Flags} de configuração do módulo Esprima.}}{55}{\textit {Flags} de configuração do módulo Esprima}{table.4.1}{}}
\newlabel{exemplojsx}{{\M@TitleReference {4.5}{Segunda Fase: Árvore Sintática Abstrata}}{56}{Exemplo de código \textit {JavaScript} com sintaxe JSX}{lstlisting.4.5}{}}
\@writefile{lol}{\contentsline {lstlisting}{\numberline {4.5}Exemplo de código \textit  {JavaScript} com sintaxe JSX.}{56}{lstlisting.4.5}}
\@writefile{lof}{\contentsline {figure}{\numberline {4.17}{\ignorespaces Exemplo de AST contendo o atributo \textit  {range}.}}{56}{figure.4.17}}
\newlabel{fig:exemplo_flag_range_esprima}{{\M@TitleReference {4.17}{Exemplo de AST contendo o atributo \textit  {range}.}}{56}{Exemplo de AST contendo o atributo \textit {range}}{figure.4.17}{}}
\@writefile{lof}{\contentsline {figure}{\numberline {4.18}{\ignorespaces Exemplo de AST contendo o atributo \textit  {loc}.}}{57}{figure.4.18}}
\newlabel{fig:fig_exemplo_flag_loc_esprima}{{\M@TitleReference {4.18}{Exemplo de AST contendo o atributo \textit  {loc}.}}{57}{Exemplo de AST contendo o atributo \textit {loc}}{figure.4.18}{}}
\@writefile{lot}{\contentsline {table}{\numberline {4.2}{\ignorespaces Configuração do módulo Esprima para a criação da AST utilizada no \textit  {TaintJSec}.}}{58}{table.4.2}}
\newlabel{esprimaconfig}{{\M@TitleReference {4.2}{Configuração do módulo Esprima para a criação da AST utilizada no \textit  {TaintJSec}.}}{58}{Configuração do módulo Esprima para a criação da AST utilizada no \textit {TaintJSec}}{table.4.2}{}}
\@writefile{toc}{\contentsline {subsection}{\numberline {4.4.3}Terceira Fase: Análise do Fluxo da Informação}{58}{subsection.4.4.3}}
\newlabel{proposta:implementacao_terceira_fase}{{\M@TitleReference {4.4.3}{Terceira Fase: Análise do Fluxo da Informação}}{58}{Terceira Fase: Análise do Fluxo da Informação}{subsection.4.4.3}{}}
\@writefile{loq}{\contentsline {quadro}{\numberline {4.2}{\ignorespaces Tipos de operações de acordo com a nomenclatura do módulo Esprima.}}{59}{quadro.4.2}}
\newlabel{quadro:tiponoh}{{\M@TitleReference {4.2}{Tipos de operações de acordo com a nomenclatura do módulo Esprima.}}{59}{Tipos de operações de acordo com a nomenclatura do módulo Esprima}{quadro.4.2}{}}
\@writefile{lof}{\contentsline {figure}{\numberline {4.19}{\ignorespaces Exemplo do uso da pilha durante a análise.}}{60}{figure.4.19}}
\newlabel{fig:pilha_ast}{{\M@TitleReference {4.19}{Exemplo do uso da pilha durante a análise.}}{60}{Exemplo do uso da pilha durante a análise}{figure.4.19}{}}
\@writefile{loa}{\contentsline {algocf}{\numberline {4.6}{\ignorespaces Identificação e tratamento dos diferentes tipos de operações contidas em cada nó da AST.}}{62}{algocf.4.6}}
\newlabel{algoritmoAnalise}{{\M@TitleReference {4.6}{Terceira Fase: Análise do Fluxo da Informação}}{62}{Terceira Fase: Análise do Fluxo da Informação}{algocf.4.6}{}}
\@writefile{lol}{\contentsline {lstlisting}{\numberline {4.6}Classe de registradores de objetos.}{63}{lstlisting.4.6}}
\@writefile{lol}{\contentsline {lstlisting}{\numberline {4.7}Função para criar escopos.}{63}{lstlisting.4.7}}
\citation{VM}
\newlabel{codigoprotype}{{\M@TitleReference {4.8}{Terceira Fase: Análise do Fluxo da Informação}}{64}{Exemplo da utilização do \textit {prototype} para inserir novos atributos em uma função/classe}{lstlisting.4.8}{}}
\@writefile{lol}{\contentsline {lstlisting}{\numberline {4.8}Exemplo da utilização do \textit  {prototype} para inserir novos atributos em uma função/classe.}{64}{lstlisting.4.8}}
\@writefile{toc}{\contentsline {section}{\numberline {4.5}Considerações Finais}{65}{section.4.5}}
\newlabel{proposta:consideracoes}{{\M@TitleReference {4.5}{Considerações Finais}}{65}{Considerações Finais}{section.4.5}{}}
\citation{Eslump}
\citation{SAFEweb,Lee_safe}
\citation{SAFE}
\citation{Gorji}
\citation{kannan2016taint}
\@writefile{lof}{\addvspace {10pt}}
\@writefile{lot}{\addvspace {10pt}}
\@writefile{toc}{\contentsline {chapter}{\chapternumberline {5}Testes e Resultados}{66}{chapter.5}}
\@writefile{loa}{\addvspace {10\p@ }}
\newlabel{testes-resultados}{{\M@TitleReference {5}{Testes e Resultados}}{66}{Testes e Resultados}{chapter.5}{}}
\@writefile{toc}{\contentsline {section}{\numberline {5.1}Protocolo Experimental}{66}{section.5.1}}
\newlabel{testes:protocolo_experimental}{{\M@TitleReference {5.1}{Protocolo Experimental}}{66}{Protocolo Experimental}{section.5.1}{}}
\newlabel{codigoartigo}{{\M@TitleReference {5.1}{Protocolo Experimental}}{67}{Exemplo de um código \textit {JavaScript} que usa informação sensível como chave de vetor para praticar o vazamento de informação}{lstlisting.5.1}{}}
\@writefile{lol}{\contentsline {lstlisting}{\numberline {5.1}Exemplo de um código \textit  {JavaScript} que usa informação sensível como chave de vetor para praticar o vazamento de informação.}{67}{lstlisting.5.1}}
\@writefile{lof}{\contentsline {figure}{\numberline {5.1}{\ignorespaces Exemplo de códigos \textit  {JavaScript} similares.}}{67}{figure.5.1}}
\newlabel{fig_exemplo_cod_similares}{{\M@TitleReference {5.1}{Exemplo de códigos \textit  {JavaScript} similares.}}{67}{Exemplo de códigos \textit {JavaScript} similares}{figure.5.1}{}}
\@writefile{loq}{\contentsline {quadro}{\numberline {5.1}{\ignorespaces Conjuntos de testes realizados para testar a propagação do \textit  {taint tag}.}}{68}{quadro.5.1}}
\newlabel{quadro:conjtestespropagacao}{{\M@TitleReference {5.1}{Conjuntos de testes realizados para testar a propagação do \textit  {taint tag}.}}{68}{Conjuntos de testes realizados para testar a propagação do \textit {taint tag}}{quadro.5.1}{}}
\citation{JSCompress}
\citation{Aaencode}
\citation{JSFuck}
\citation{JScrambler}
\citation{Packer}
\@writefile{lof}{\contentsline {figure}{\numberline {5.2}{\ignorespaces Visão geral do protocolo experimental.}}{69}{figure.5.2}}
\newlabel{fig_estr_base_testes}{{\M@TitleReference {5.2}{Visão geral do protocolo experimental.}}{69}{Visão geral do protocolo experimental}{figure.5.2}{}}
\@writefile{toc}{\contentsline {section}{\numberline {5.2}Testes de Propagação}{70}{section.5.2}}
\newlabel{testes:testes_propagacao}{{\M@TitleReference {5.2}{Testes de Propagação}}{70}{Testes de Propagação}{section.5.2}{}}
\@writefile{toc}{\contentsline {subsection}{\numberline {5.2.1}Atribuição}{70}{subsection.5.2.1}}
\newlabel{testes:testes_p_atribuicao}{{\M@TitleReference {5.2.1}{Atribuição}}{70}{Atribuição}{subsection.5.2.1}{}}
\@writefile{toc}{\contentsline {subsubsection}{\numberline {5.2.1.1}Atribuição Encadeada}{70}{subsubsection.5.2.1.1}}
\newlabel{testes:testes_p_atribuicaoencadeada}{{\M@TitleReference {5.2.1.1}{Atribuição Encadeada}}{70}{Atribuição Encadeada}{subsubsection.5.2.1.1}{}}
\newlabel{resultadoAtrbEncad}{{\M@TitleReference {5.2}{Atribuição Encadeada}}{70}{Teste de atribuição encadeada}{lstlisting.5.2}{}}
\@writefile{lol}{\contentsline {lstlisting}{\numberline {5.2}Teste de atribuição encadeada.}{70}{lstlisting.5.2}}
\@writefile{toc}{\contentsline {subsubsection}{\numberline {5.2.1.2}Atribuição Simples}{71}{subsubsection.5.2.1.2}}
\newlabel{testes:testes_p_atribuicaosimples}{{\M@TitleReference {5.2.1.2}{Atribuição Simples}}{71}{Atribuição Simples}{subsubsection.5.2.1.2}{}}
\newlabel{resultadoAtrbSimples}{{\M@TitleReference {5.3}{Atribuição Simples}}{72}{Teste de atribuição simples}{lstlisting.5.3}{}}
\@writefile{lol}{\contentsline {lstlisting}{\numberline {5.3}Teste de atribuição simples}{72}{lstlisting.5.3}}
\@writefile{toc}{\contentsline {subsection}{\numberline {5.2.2}Condicional}{74}{subsection.5.2.2}}
\newlabel{testes:testes_p_condicional}{{\M@TitleReference {5.2.2}{Condicional}}{74}{Condicional}{subsection.5.2.2}{}}
\newlabel{ResultadoTesteCond}{{\M@TitleReference {5.4}{Condicional}}{75}{Resultado do teste de condicional}{lstlisting.5.4}{}}
\@writefile{lol}{\contentsline {lstlisting}{\numberline {5.4}Resultado do teste de condicional}{75}{lstlisting.5.4}}
\@writefile{toc}{\contentsline {subsection}{\numberline {5.2.3}Função}{77}{subsection.5.2.3}}
\newlabel{testes:testes_p_funcao}{{\M@TitleReference {5.2.3}{Função}}{77}{Função}{subsection.5.2.3}{}}
\@writefile{toc}{\contentsline {subsubsection}{\numberline {5.2.3.1}Função Não-Nativa}{77}{subsubsection.5.2.3.1}}
\newlabel{testes:testes_p_funcaonaonativa}{{\M@TitleReference {5.2.3.1}{Função Não-Nativa}}{77}{Função Não-Nativa}{subsubsection.5.2.3.1}{}}
\newlabel{TesteFuncNaoNativa}{{\M@TitleReference {5.5}{Função Não-Nativa}}{78}{Teste de função não-nativa}{lstlisting.5.5}{}}
\@writefile{lol}{\contentsline {lstlisting}{\numberline {5.5}Teste de função não-nativa}{78}{lstlisting.5.5}}
\@writefile{toc}{\contentsline {subsubsection}{\numberline {5.2.3.2}Função Nativa}{80}{subsubsection.5.2.3.2}}
\newlabel{testes:testes_p_funcaonativa}{{\M@TitleReference {5.2.3.2}{Função Nativa}}{80}{Função Nativa}{subsubsection.5.2.3.2}{}}
\newlabel{TesteFuncNativa}{{\M@TitleReference {5.6}{Função Nativa}}{81}{Resultado do teste de função nativa}{lstlisting.5.6}{}}
\@writefile{lol}{\contentsline {lstlisting}{\numberline {5.6}Resultado do teste de função nativa}{81}{lstlisting.5.6}}
\@writefile{toc}{\contentsline {subsection}{\numberline {5.2.4}\textit  {Prototype}}{82}{subsection.5.2.4}}
\newlabel{testes:testes_p_prototype}{{\M@TitleReference {5.2.4}{\textit  {Prototype}}}{82}{\textit {Prototype}}{subsection.5.2.4}{}}
\newlabel{ResultadoTestePrototype}{{\M@TitleReference {5.7}{\textit  {Prototype}}}{84}{Resultado do teste de \textit {prototype}}{lstlisting.5.7}{}}
\@writefile{lol}{\contentsline {lstlisting}{\numberline {5.7}Resultado do teste de \textit  {prototype}}{84}{lstlisting.5.7}}
\@writefile{toc}{\contentsline {subsection}{\numberline {5.2.5}Laço de Repetição}{90}{subsection.5.2.5}}
\newlabel{testes:testes_p_laco_repeticao}{{\M@TitleReference {5.2.5}{Laço de Repetição}}{90}{Laço de Repetição}{subsection.5.2.5}{}}
\@writefile{toc}{\contentsline {subsubsection}{\numberline {5.2.5.1}\textit  {Do While}}{90}{subsubsection.5.2.5.1}}
\newlabel{testes:testes_p_laco_repeticao_dowhile}{{\M@TitleReference {5.2.5.1}{\textit  {Do While}}}{90}{\textit {Do While}}{subsubsection.5.2.5.1}{}}
\newlabel{ResultadoTesteDoWhile}{{\M@TitleReference {5.8}{\textit  {Do While}}}{91}{Resultado do teste do laço de repetição \textit {Do While}}{lstlisting.5.8}{}}
\@writefile{lol}{\contentsline {lstlisting}{\numberline {5.8}Resultado do teste do laço de repetição \textit  {Do While}}{91}{lstlisting.5.8}}
\@writefile{toc}{\contentsline {subsubsection}{\numberline {5.2.5.2}\textit  {For}}{92}{subsubsection.5.2.5.2}}
\newlabel{testes:testes_p_laco_repeticao_for}{{\M@TitleReference {5.2.5.2}{\textit  {For}}}{92}{\textit {For}}{subsubsection.5.2.5.2}{}}
\newlabel{ResultadoTesteFor}{{\M@TitleReference {5.9}{\textit  {For}}}{92}{Resultado do teste do laço de repetição \textit {For}}{lstlisting.5.9}{}}
\@writefile{lol}{\contentsline {lstlisting}{\numberline {5.9}Resultado do teste do laço de repetição \textit  {For}}{92}{lstlisting.5.9}}
\@writefile{toc}{\contentsline {subsubsection}{\numberline {5.2.5.3}\textit  {For In}}{93}{subsubsection.5.2.5.3}}
\newlabel{testes:testes_p_laco_repeticao_forin}{{\M@TitleReference {5.2.5.3}{\textit  {For In}}}{93}{\textit {For In}}{subsubsection.5.2.5.3}{}}
\newlabel{ResultadoTesteForIn}{{\M@TitleReference {5.10}{\textit  {For In}}}{93}{Resultado do teste do laço de repetição \textit {For In}}{lstlisting.5.10}{}}
\@writefile{lol}{\contentsline {lstlisting}{\numberline {5.10}Resultado do teste do laço de repetição \textit  {For In}}{93}{lstlisting.5.10}}
\@writefile{toc}{\contentsline {subsubsection}{\numberline {5.2.5.4}\textit  {While}}{94}{subsubsection.5.2.5.4}}
\newlabel{testes:testes_p_laco_repeticaowhile}{{\M@TitleReference {5.2.5.4}{\textit  {While}}}{94}{\textit {While}}{subsubsection.5.2.5.4}{}}
\newlabel{ResultadoTesteWhile}{{\M@TitleReference {5.11}{\textit  {While}}}{94}{Resultado do teste do laço de repetição \textit {While}}{lstlisting.5.11}{}}
\@writefile{lol}{\contentsline {lstlisting}{\numberline {5.11}Resultado do teste do laço de repetição \textit  {While}}{94}{lstlisting.5.11}}
\@writefile{toc}{\contentsline {subsubsection}{\numberline {5.2.5.5}\textit  {Switch}}{95}{subsubsection.5.2.5.5}}
\newlabel{testes:testes_p_switchcase}{{\M@TitleReference {5.2.5.5}{\textit  {Switch}}}{95}{\textit {Switch}}{subsubsection.5.2.5.5}{}}
\newlabel{ResultadoTesteSwitch}{{\M@TitleReference {5.12}{\textit  {Switch}}}{95}{Resultado do teste de \textit {switch}}{lstlisting.5.12}{}}
\@writefile{lol}{\contentsline {lstlisting}{\numberline {5.12}Resultado do teste de \textit  {switch}}{95}{lstlisting.5.12}}
\@writefile{toc}{\contentsline {subsubsection}{\numberline {5.2.5.6}\textit  {Try-Catch}}{96}{subsubsection.5.2.5.6}}
\newlabel{testes:testes_p_trycatch}{{\M@TitleReference {5.2.5.6}{\textit  {Try-Catch}}}{96}{\textit {Try-Catch}}{subsubsection.5.2.5.6}{}}
\newlabel{ResultadoTesteTryCatch}{{\M@TitleReference {5.13}{\textit  {Try-Catch}}}{97}{Resultado do teste de \textit {Try-Catch}}{lstlisting.5.13}{}}
\@writefile{lol}{\contentsline {lstlisting}{\numberline {5.13}Resultado do teste de \textit  {Try-Catch}}{97}{lstlisting.5.13}}
\citation{kannan2016taint}
\@writefile{toc}{\contentsline {subsubsection}{\numberline {5.2.5.7}Vetor}{98}{subsubsection.5.2.5.7}}
\newlabel{testes:testes_p_vetor}{{\M@TitleReference {5.2.5.7}{Vetor}}{98}{Vetor}{subsubsection.5.2.5.7}{}}
\newlabel{ResultadoTesteVetor}{{\M@TitleReference {5.14}{Vetor}}{99}{Resultado do teste com Vetor}{lstlisting.5.14}{}}
\@writefile{lol}{\contentsline {lstlisting}{\numberline {5.14}Resultado do teste com Vetor}{99}{lstlisting.5.14}}
\@writefile{toc}{\contentsline {section}{\numberline {5.3}Testes com a Função \textit  {eval}}{101}{section.5.3}}
\newlabel{testes:testes_funcao_eval}{{\M@TitleReference {5.3}{Testes com a Função \textit  {eval}}}{101}{Testes com a Função \textit {eval}}{section.5.3}{}}
\@writefile{loq}{\contentsline {quadro}{\numberline {5.2}{\ignorespaces Testes de propagação do \textit  {taint tag} na função \textit  {eval}.}}{101}{quadro.5.2}}
\newlabel{quadro:testes_eval}{{\M@TitleReference {5.2}{Testes de propagação do \textit  {taint tag} na função \textit  {eval}.}}{101}{Testes de propagação do \textit {taint tag} na função \textit {eval}}{quadro.5.2}{}}
\@writefile{loq}{\contentsline {quadro}{\numberline {5.3}{\ignorespaces Resultado dos testes de propagação do \textit  {taint tag} na função \textit  {eval}.}}{102}{quadro.5.3}}
\newlabel{quadro:resultados_dos_testes_eval}{{\M@TitleReference {5.3}{Resultado dos testes de propagação do \textit  {taint tag} na função \textit  {eval}.}}{102}{Resultado dos testes de propagação do \textit {taint tag} na função \textit {eval}}{quadro.5.3}{}}
\@writefile{toc}{\contentsline {subsection}{\numberline {5.3.1}Função \textit  {eval} + Ofuscação de código + Propagação nos objetos do DOM}{102}{subsection.5.3.1}}
\newlabel{testes:testes_funcao_eval_aplicacao}{{\M@TitleReference {5.3.1}{Função \textit  {eval} + Ofuscação de código + Propagação nos objetos do DOM}}{102}{Função \textit {eval} + Ofuscação de código + Propagação nos objetos do DOM}{subsection.5.3.1}{}}
\newlabel{paginagetdados.php}{{\M@TitleReference {5.15}{Função \textit  {eval} + Ofuscação de código + Propagação nos objetos do DOM}}{102}{Código da página \textit {getDados.php}}{lstlisting.5.15}{}}
\@writefile{lol}{\contentsline {lstlisting}{\numberline {5.15}Código da página \textit  {getDados.php}.}{102}{lstlisting.5.15}}
\newlabel{aplicacaomaliciosa}{{\M@TitleReference {5.16}{Função \textit  {eval} + Ofuscação de código + Propagação nos objetos do DOM}}{103}{Trecho do código da aplicação maliciosa}{lstlisting.5.16}{}}
\@writefile{lol}{\contentsline {lstlisting}{\numberline {5.16}Trecho do código da aplicação maliciosa.}{103}{lstlisting.5.16}}
\citation{JSCompress}
\citation{Aaencode}
\citation{JSFuck}
\citation{JScrambler}
\citation{Packer}
\@writefile{toc}{\contentsline {section}{\numberline {5.4}Testes em Códigos Ofuscados}{104}{section.5.4}}
\newlabel{testes:testes_codigos_ofuscados}{{\M@TitleReference {5.4}{Testes em Códigos Ofuscados}}{104}{Testes em Códigos Ofuscados}{section.5.4}{}}
\@writefile{toc}{\contentsline {subsection}{\numberline {5.4.1}\textit  {JSCompress}}{104}{subsection.5.4.1}}
\newlabel{testes:testes_codigos_ofuscados_jscompres}{{\M@TitleReference {5.4.1}{\textit  {JSCompress}}}{104}{\textit {JSCompress}}{subsection.5.4.1}{}}
\@writefile{lof}{\contentsline {figure}{\numberline {5.3}{\ignorespaces Código gerado pelo \textit  {JSCompress}.}}{104}{figure.5.3}}
\newlabel{fig_teste_jscompress_gerado}{{\M@TitleReference {5.3}{Código gerado pelo \textit  {JSCompress}.}}{104}{Código gerado pelo \textit {JSCompress}}{figure.5.3}{}}
\@writefile{lof}{\contentsline {figure}{\numberline {5.4}{\ignorespaces Detecção do vazamento de informação no código gerado pelo \textit  {JSCompress}.}}{105}{figure.5.4}}
\newlabel{fig_teste_jscompress}{{\M@TitleReference {5.4}{Detecção do vazamento de informação no código gerado pelo \textit  {JSCompress}.}}{105}{Detecção do vazamento de informação no código gerado pelo \textit {JSCompress}}{figure.5.4}{}}
\@writefile{toc}{\contentsline {subsection}{\numberline {5.4.2}\textit  {Aaencode}}{106}{subsection.5.4.2}}
\newlabel{testes:testes_codigos_ofuscados_Aaencode}{{\M@TitleReference {5.4.2}{\textit  {Aaencode}}}{106}{\textit {Aaencode}}{subsection.5.4.2}{}}
\@writefile{lof}{\contentsline {figure}{\numberline {5.5}{\ignorespaces Código gerado pelo \textit  {Aaencode}.}}{106}{figure.5.5}}
\newlabel{fig_teste_aaencode_gerado}{{\M@TitleReference {5.5}{Código gerado pelo \textit  {Aaencode}.}}{106}{Código gerado pelo \textit {Aaencode}}{figure.5.5}{}}
\@writefile{lof}{\contentsline {figure}{\numberline {5.6}{\ignorespaces Detecção do vazamento de informação no código gerado pelo \textit  {Aaencode}.}}{108}{figure.5.6}}
\newlabel{fig_teste_aaencode_detectado}{{\M@TitleReference {5.6}{Detecção do vazamento de informação no código gerado pelo \textit  {Aaencode}.}}{108}{Detecção do vazamento de informação no código gerado pelo \textit {Aaencode}}{figure.5.6}{}}
\@writefile{toc}{\contentsline {subsection}{\numberline {5.4.3}\textit  {JSFuck}}{109}{subsection.5.4.3}}
\newlabel{testes:testes_codigos_ofuscados_JSFuck}{{\M@TitleReference {5.4.3}{\textit  {JSFuck}}}{109}{\textit {JSFuck}}{subsection.5.4.3}{}}
\@writefile{lof}{\contentsline {figure}{\numberline {5.7}{\ignorespaces Código gerado pelo \textit  {JSFuck}.}}{109}{figure.5.7}}
\newlabel{fig_teste_jsfuck}{{\M@TitleReference {5.7}{Código gerado pelo \textit  {JSFuck}.}}{109}{Código gerado pelo \textit {JSFuck}}{figure.5.7}{}}
\@writefile{lof}{\contentsline {figure}{\numberline {5.8}{\ignorespaces Detecção do vazamento de informação no código gerado pelo \textit  {JSFuck}.}}{111}{figure.5.8}}
\newlabel{fig_teste_jsfuck_detectado}{{\M@TitleReference {5.8}{Detecção do vazamento de informação no código gerado pelo \textit  {JSFuck}.}}{111}{Detecção do vazamento de informação no código gerado pelo \textit {JSFuck}}{figure.5.8}{}}
\@writefile{toc}{\contentsline {subsection}{\numberline {5.4.4}\textit  {JSCrambler}}{112}{subsection.5.4.4}}
\newlabel{testes:testes_codigos_ofuscados_jscrambler}{{\M@TitleReference {5.4.4}{\textit  {JSCrambler}}}{112}{\textit {JSCrambler}}{subsection.5.4.4}{}}
\@writefile{lof}{\contentsline {figure}{\numberline {5.9}{\ignorespaces Código gerado pelo \textit  {JSCrambler}.}}{112}{figure.5.9}}
\newlabel{fig_teste_jscrambler_gerado}{{\M@TitleReference {5.9}{Código gerado pelo \textit  {JSCrambler}.}}{112}{Código gerado pelo \textit {JSCrambler}}{figure.5.9}{}}
\@writefile{lof}{\contentsline {figure}{\numberline {5.10}{\ignorespaces Detecção do vazamento de informação no código gerado pelo \textit  {JSCrambler}.}}{115}{figure.5.10}}
\newlabel{fig_teste_jscrambler_detectado}{{\M@TitleReference {5.10}{Detecção do vazamento de informação no código gerado pelo \textit  {JSCrambler}.}}{115}{Detecção do vazamento de informação no código gerado pelo \textit {JSCrambler}}{figure.5.10}{}}
\@writefile{toc}{\contentsline {subsection}{\numberline {5.4.5}\textit  {Packer}}{116}{subsection.5.4.5}}
\newlabel{testes:testes_codigos_ofuscados_packer}{{\M@TitleReference {5.4.5}{\textit  {Packer}}}{116}{\textit {Packer}}{subsection.5.4.5}{}}
\@writefile{lof}{\contentsline {figure}{\numberline {5.11}{\ignorespaces Código gerado pelo \textit  {Packer}.}}{116}{figure.5.11}}
\newlabel{fig_teste_packer_gerado}{{\M@TitleReference {5.11}{Código gerado pelo \textit  {Packer}.}}{116}{Código gerado pelo \textit {Packer}}{figure.5.11}{}}
\@writefile{lof}{\contentsline {figure}{\numberline {5.12}{\ignorespaces Detecção do vazamento de informação no código gerado pelo \textit  {Packer}.}}{117}{figure.5.12}}
\newlabel{fig_teste_packer_detectado}{{\M@TitleReference {5.12}{Detecção do vazamento de informação no código gerado pelo \textit  {Packer}.}}{117}{Detecção do vazamento de informação no código gerado pelo \textit {Packer}}{figure.5.12}{}}
\@writefile{lof}{\addvspace {10pt}}
\@writefile{lot}{\addvspace {10pt}}
\@writefile{toc}{\contentsline {chapter}{\chapternumberline {6}Conclusão}{118}{chapter.6}}
\@writefile{loa}{\addvspace {10\p@ }}
\newlabel{conclusao}{{\M@TitleReference {6}{Conclusão}}{118}{Conclusão}{chapter.6}{}}
\@writefile{toc}{\contentsline {section}{\numberline {6.1}Considerações Finais}{118}{section.6.1}}
\newlabel{conclusao:consideracoesfinais}{{\M@TitleReference {6.1}{Considerações Finais}}{118}{Considerações Finais}{section.6.1}{}}
\@writefile{toc}{\contentsline {section}{\numberline {6.2}Lições Aprendidas}{119}{section.6.2}}
\newlabel{conclusao:licoesaprendidas}{{\M@TitleReference {6.2}{Lições Aprendidas}}{119}{Lições Aprendidas}{section.6.2}{}}
\@writefile{lof}{\contentsline {figure}{\numberline {6.1}{\ignorespaces Exemplo de código \textit  {JavaScript} e os dois momentos de execução do escopo.}}{120}{figure.6.1}}
\newlabel{fig_momentos_exec_escopo}{{\M@TitleReference {6.1}{Exemplo de código \textit  {JavaScript} e os dois momentos de execução do escopo.}}{120}{Exemplo de código \textit {JavaScript} e os dois momentos de execução do escopo}{figure.6.1}{}}
\@writefile{lof}{\contentsline {figure}{\numberline {6.2}{\ignorespaces Exemplo de um código \textit  {JavaScript} e a sua versão reestruturada pelo SAFE.}}{121}{figure.6.2}}
\newlabel{fig_trans_code_safe}{{\M@TitleReference {6.2}{Exemplo de um código \textit  {JavaScript} e a sua versão reestruturada pelo SAFE.}}{121}{Exemplo de um código \textit {JavaScript} e a sua versão reestruturada pelo SAFE}{figure.6.2}{}}
\@writefile{toc}{\contentsline {section}{\numberline {6.3}Trabalhos Futuros}{121}{section.6.3}}
\newlabel{conclusao:trabalhos_futuros}{{\M@TitleReference {6.3}{Trabalhos Futuros}}{121}{Trabalhos Futuros}{section.6.3}{}}
\bibstyle{unsrt}
\bibstyle{ppgccufmg}
\bibdata{bib/referencias}
\bibcite{7476665}{{1}{}{{}}{{}}}
\bibcite{JavascriptUncovered}{{2}{}{{}}{{}}}
\bibcite{SOverflow}{{3}{}{{}}{{}}}
\bibcite{Concolic}{{4}{}{{}}{{}}}
\bibcite{RedMonk2017}{{5}{}{{}}{{}}}
\bibcite{6681338}{{6}{}{{}}{{}}}
\bibcite{WebFirefox}{{7}{}{{}}{{}}}
\bibcite{WebChrome}{{8}{}{{}}{{}}}
\bibcite{WinJS}{{9}{}{{}}{{}}}
\bibcite{Electron}{{10}{}{{}}{{}}}
\bibcite{Node.js}{{11}{}{{}}{{}}}
\@writefile{toc}{\contentsline {chapter}{Refer\^encias Bibliogr\'aficas}{123}{section*.12}}
\bibcite{Tizen}{{12}{}{{}}{{}}}
\bibcite{Peneti2016}{{13}{}{{}}{{}}}
\bibcite{AndroidLeaks}{{14}{}{{}}{{}}}
\bibcite{Nedwons}{{15}{}{{}}{{}}}
\bibcite{6547438}{{16}{}{{}}{{}}}
\bibcite{Wang2014AGL}{{17}{}{{}}{{}}}
\bibcite{Hsiao2014PasDroidRS}{{18}{}{{}}{{}}}
\bibcite{JSAI}{{19}{}{{}}{{}}}
\bibcite{JSNOSE}{{20}{}{{}}{{}}}
\bibcite{JSWhiz}{{21}{}{{}}{{}}}
\bibcite{7372042}{{22}{}{{}}{{}}}
\bibcite{Kashyap}{{23}{}{{}}{{}}}
\bibcite{6903571}{{24}{}{{}}{{}}}
\bibcite{TrustDroid}{{25}{}{{}}{{}}}
\bibcite{LeakMiner}{{26}{}{{}}{{}}}
\bibcite{Enck2010}{{27}{}{{}}{{}}}
\bibcite{DefJavascript}{{28}{}{{}}{{}}}
\bibcite{ECMAscript}{{29}{}{{}}{{}}}
\bibcite{JavGuideDef}{{30}{}{{}}{{}}}
\bibcite{HTMLArch}{{31}{}{{}}{{}}}
\bibcite{W3CJavascript}{{32}{}{{}}{{}}}
\bibcite{NodeJS}{{33}{}{{}}{{}}}
\bibcite{SEC:SEC1064}{{34}{}{{}}{{}}}
\bibcite{jodavi2015}{{35}{}{{}}{{}}}
\bibcite{CasoSony}{{36}{}{{}}{{}}}
\bibcite{5487521}{{37}{}{{}}{{}}}
\bibcite{casoUber}{{38}{}{{}}{{}}}
\bibcite{BYOD}{{39}{}{{}}{{}}}
\bibcite{7888731}{{40}{}{{}}{{}}}
\bibcite{Saoji}{{41}{}{{}}{{}}}
\bibcite{6234407}{{42}{}{{}}{{}}}
\bibcite{Yong2005}{{43}{}{{}}{{}}}
\bibcite{7977127}{{44}{}{{}}{{}}}
\bibcite{Asund}{{45}{}{{}}{{}}}
\bibcite{Mohammed_A}{{46}{}{{}}{{}}}
\bibcite{5705174}{{47}{}{{}}{{}}}
\bibcite{kukushi2014}{{48}{}{{}}{{}}}
\bibcite{lazar2014}{{49}{}{{}}{{}}}
\bibcite{Neamtiu2005}{{50}{}{{}}{{}}}
\bibcite{blanc2012}{{51}{}{{}}{{}}}
\bibcite{Curtsinger2011}{{52}{}{{}}{{}}}
\bibcite{Esprima}{{53}{}{{}}{{}}}
\bibcite{DBLP:journals/corr/LiBKTARBOM14}{{54}{}{{}}{{}}}
\bibcite{Spidermonkey}{{55}{}{{}}{{}}}
\bibcite{Scala}{{56}{}{{}}{{}}}
\bibcite{Rhino}{{57}{}{{}}{{}}}
\bibcite{SAFEweb}{{58}{}{{}}{{}}}
\bibcite{SAFE}{{59}{}{{}}{{}}}
\bibcite{Lee_safe}{{60}{}{{}}{{}}}
\bibcite{WALA}{{61}{}{{}}{{}}}
\bibcite{SunSpider}{{62}{}{{}}{{}}}
\bibcite{Octane}{{63}{}{{}}{{}}}
\bibcite{LINQ}{{64}{}{{}}{{}}}
\bibcite{Emscripten}{{65}{}{{}}{{}}}
\bibcite{jsprime}{{66}{}{{}}{{}}}
\bibcite{scanjs}{{67}{}{{}}{{}}}
\bibcite{jspwn}{{68}{}{{}}{{}}}
\bibcite{JSDOM}{{69}{}{{}}{{}}}
\bibcite{jQuery}{{70}{}{{}}{{}}}
\bibcite{VM}{{71}{}{{}}{{}}}
\bibcite{Eslump}{{72}{}{{}}{{}}}
\bibcite{Gorji}{{73}{}{{}}{{}}}
\bibcite{kannan2016taint}{{74}{}{{}}{{}}}
\bibcite{JSCompress}{{75}{}{{}}{{}}}
\bibcite{Aaencode}{{76}{}{{}}{{}}}
\bibcite{JSFuck}{{77}{}{{}}{{}}}
\bibcite{JScrambler}{{78}{}{{}}{{}}}
\bibcite{Packer}{{79}{}{{}}{{}}}
\providecommand\NAT@force@numbers{}\NAT@force@numbers
\memsetcounter{lastsheet}{150}
\memsetcounter{lastpage}{129}
